{
  "type": "service_account",
  "project_id": "boknoi-343409",
  "private_key_id": "a2d734ac4690b0dd0830026e2978b0059d96aca0",
  "private_key": "-----BEGIN PRIVATE KEY-----\nMIIEvgIBADANBgkqhkiG9w0BAQEFAASCBKgwggSkAgEAAoIBAQCkfh+i3SZjNhi9\ncVvUKlmsrPmb+2WLSa2iHyDvCF3rfntM4u2XEf2XNot+byZdlrgz61dNpukk/YEW\nw0Csu9ICWLFVXLx36lnCZ5aU8502K/UpDpZaC7lHJvcRyhx3RjWPvE1YRwXtQeda\nTCR8zg32PGn6W7rJXuRkUts0kwXJb8ychZcpuBwM3xgWQd/DvOOvDCCoYmpglM1w\nW5rpbTUblijG7Wy0oOiC7Y6ZJ9jOmCWYZvZcA0YmzXlLAXWjnUc27Enq0eM8xuqu\n9hXDOKeS5HnimBdmU9q0+FNRLMjcb96oshK/F7JeDAEj2g96ltrc3I/8eIF6kYg+\nB98XHWH/AgMBAAECggEAFYR+JPLi+6Vu9REoHwfvNRxnhpULQn4/3W5PA5XHm2+v\nN26T/+gVkTtMYhyuGx4FOJ13jSvhYbpbsZuXEUF8hlwNzonUCae5WCnu08tObHCx\noE5NMrhH41vghA45TQz9IrFSONMJnnC5j+FYAI9/2g8rGdn4BDGKlOkVzbnRzvjA\nNpb3N4WvQDyxhe8V+fzVXt4gG1AGXdrx2y7+jds6ZSQbPuGMq2uuT9blJ3bmbkaL\nWnxPBFmzRLCbs0PfoqgAyLzObIOqgCblbbEqJJjdTXvRcMaJqeZrCaEjB5yjWiSj\n3MBeLzMVVt+p0krmhE9Mdgb3h+jwzKRcOPcPuytLWQKBgQDZmqpUe5IJM10erITo\n9Ug+0OOUVplasbWyaauQBMafzIVJOVIpwVgBBwLvRrN6Krn4En/qcaL2G8a/9+Eo\nvFn3S+1thRe3KPTj26RWOVTENgnxsDQfmelQuNs3QDQodnkJaG8s0SLlo2Xq2n7Y\ncSPGuopxAHds0nVtW/NFJIzcTQKBgQDBhF/ZlYvJoeDCxzcg/4Xz61ecMUrgoBxc\nB7UY0BzbHQDqc+6WcXAXETddpYbbXXS4G6L6VmSBLtVhr5bSi9a5Rqba7LJ3sP91\nQ7L7LbVeDUzA2wwSx6pxnd3YDMzw0i5vNCF8Q4AlVBr5DcL9AqWNCETgOEemwAYZ\n8p122o4tewKBgHwZuQp1btPQd0sHGMXDHXC1sRToTo1qzDT0DuQT1TNNcLZR+onV\nulrbpNDRgYoq0+SmqE0MgePZ83+H3uFcifJ/Wuka/mt28DMDELYb/DvqlcFAvHlJ\nTca7pkncU+K/rkevR7hHjZ9pkLZf5feKjtzHhizsFy/41v+HcTX9olgBAoGBALY8\nBldMcPtMKfDC0bONbYOqGDLKaIznuk0gJPZc5Q+iXH5s9j1OThQq7kyN2FUzyPqn\na+769GKCzAbV594WOfr4AaEgTWBRmf+/5QiMnsMXGzRyEwiMZoHf/E28oDIYfAnU\nucPffQmqDkyDHSBOIcCSDOpplW/+XMCKrKaEYmeJAoGBAJiMOnU3F/bV7yJbJRcF\nHLwHK1GwhJUSAIW6zkPI00DqoKWdZFeELlnn0ZJB1ZoY7nfklDrn0wQvVNI/qcmd\nh74Xv3Muh4ZvdWNlq2zFf8gFm37KYaBrx9oDANAkFWuAaRy/SwU9ELrb/nrOrfxU\n/3EFRVQxGIzMN+/zXo4i5hSd\n-----END PRIVATE KEY-----\n",
  "client_email": "firebase-adminsdk-75a4s@boknoi-343409.iam.gserviceaccount.com",
  "client_id": "108048431875458310677",
  "auth_uri": "https://accounts.google.com/o/oauth2/auth",
  "token_uri": "https://oauth2.googleapis.com/token",
  "auth_provider_x509_cert_url": "https://www.googleapis.com/oauth2/v1/certs",
  "client_x509_cert_url": "https://www.googleapis.com/robot/v1/metadata/x509/firebase-adminsdk-75a4s%40boknoi-343409.iam.gserviceaccount.com"
}
