country,prct_rpt_pollution
Austria,10.7
Belgium,13.2
Bulgaria,15.1
Croatia,7
Cyprus,9.2
Czechia,13.5
Denmark,6.8
Estonia,9.9
Finland,7.2
France,14.1
Germany,23.2
Greece,19.6
Hungary,12.8
Iceland,7.9
Ireland,4.6
Italy,15.1
Latvia,17.2
Lithuania,15.6
Luxembourg,16.1
Malta,30.2
Netherlands,13.2
Norway,6.8
Poland,11.4
Portugal,13.1
Romania,14.5
Slovakia,9.3
Slovenia,15.9
Spain,10.1
Sweden,6.3
Switzerland,8.9
Turkey,24.5
United Kingdom,9
